<?xml version="1.0" encoding="UTF-8"?>
<svg width="20px" height="20px" viewBox="0 0 20 20" version="1.1" xmlns="http://www.w3.org/2000/svg" xmlns:xlink="http://www.w3.org/1999/xlink">
    <!-- Generator: Sketch 62 (91390) - https://sketch.com -->
    <title>Combined Shape</title>
    <desc>Created with Sketch.</desc>
    <g id="08-Product" stroke="none" stroke-width="1" fill="none" fill-rule="evenodd">
        <g id="08-Product/Custom-Request2" transform="translate(-99.000000, -1048.000000)" fill="#5D9998" fill-rule="nonzero">
            <g id="Group-2" transform="translate(24.000000, 1034.000000)">
                <path d="M85,14.5 C90.2467051,14.5 94.5,18.7532949 94.5,24 C94.5,29.2467051 90.2467051,33.5 85,33.5 C79.7532949,33.5 75.5,29.2467051 75.5,24 C75.5,18.7532949 79.7532949,14.5 85,14.5 Z M85,15.5 C80.3055796,15.5 76.5,19.3055796 76.5,24 C76.5,28.6944204 80.3055796,32.5 85,32.5 C89.6944204,32.5 93.5,28.6944204 93.5,24 C93.5,19.3055796 89.6944204,15.5 85,15.5 Z M85.6070781,20 L85.6070781,23.3929219 L89,23.3929219 L89,24.6070781 L85.6070781,24.6070781 L85.6070781,28 L84.3929219,28 L84.3929219,24.6070781 L81,24.6070781 L81,23.3929219 L84.3929219,23.3929219 L84.3929219,20 L85.6070781,20 Z" id="Combined-Shape"></path>
            </g>
        </g>
    </g>
</svg>