<svg xmlns="http://www.w3.org/2000/svg" width="24" height="24" viewBox="0 0 24 24">
    <path fill="#fff" fill-rule="evenodd" d="M17 23.414L6.293 12.707a.999.999 0 0 1 0-1.414L17 .586 18.414 2l-10 10 10 10L17 23.414z"/>
</svg>
