<svg xmlns="http://www.w3.org/2000/svg" width="24" height="24" viewBox="0 0 24 24">
    <path fill="#fff" fill-rule="nonzero" d="M16 5H8v2H6V5H4a1 1 0 0 0-1 1v3h18V6a1 1 0 0 0-1-1h-2v2h-2V5zm2-2h2a3 3 0 0 1 3 3v13a3 3 0 0 1-3 3H4a3 3 0 0 1-3-3V6a3 3 0 0 1 3-3h2V1h2v2h8V1h2v2zm3 8H3v8a1 1 0 0 0 1 1h16a1 1 0 0 0 1-1v-8z" />
</svg>
