<svg xmlns="http://www.w3.org/2000/svg" width="24" height="24" viewBox="0 0 24 24">
	<path d="M12,20c-1.1,0-2-0.9-2-2s0.9-2,2-2s2,0.9,2,2S13.1,20,12,20z M13.6,5L13,14h-2l-0.6-9H13.6z M12,0C5.4,0,0,5.4,0,12
	s5.4,12,12,12s12-5.4,12-12S18.6,0,12,0z" fill="#fff" />
</svg>
