<svg xmlns="http://www.w3.org/2000/svg" width="24" height="24" viewBox="0 0 24 24">
	<path d="M20.3,2H3.7C2.7,2,2,2.7,2,3.7v16.7C2,21.3,2.7,22,3.7,22h9.2v-7.5h-2.5v-3.3h2.5V9c0-2.6,1.6-4,3.9-4
	c1.1,0,2.1,0.1,2.3,0.1v2.7l-1.6,0c-1.3,0-1.5,0.6-1.5,1.5v1.9h3.7l-0.8,3.3H16V22h4.4c0.9,0,1.7-0.7,1.7-1.7V3.7
	C22,2.7,21.3,2,20.3,2z" fill="#fff" />
</svg>
