<svg xmlns="http://www.w3.org/2000/svg" width="24" height="24" viewBox="0 0 24 24">
	<path d="M12,21.8l9.5-5.7c0.5-0.3,1.1-0.1,1.4,0.3c0.3,0.5,0.1,1.1-0.3,1.4l-10,6c-0.3,0.2-0.7,0.2-1,0l-10-6
	C1,17.6,0.9,17,1.1,16.5C1.4,16,2,15.9,2.5,16.1L12,21.8z M21.5,11.1c0.5-0.3,1.1-0.1,1.4,0.3c0.3,0.5,0.1,1.1-0.3,1.4l-10,6
	c-0.3,0.2-0.7,0.2-1,0l-10-6C1,12.6,0.9,12,1.1,11.5C1.4,11,2,10.9,2.5,11.1l9.5,5.7L21.5,11.1z M3.9,7l8.1,4.8L20.1,7L12,2.2L3.9,7
	z M1.5,6.1l10-6c0.3-0.2,0.7-0.2,1,0l10,6c0.6,0.4,0.6,1.3,0,1.7l-10,6c-0.3,0.2-0.7,0.2-1,0l-10-6C0.8,7.5,0.8,6.5,1.5,6.1z" fill="#fff" />
</svg>
