<svg xmlns="http://www.w3.org/2000/svg" width="24" height="24" viewBox="0 0 24 24">
    <path fill="#fff" fill-rule="nonzero" d="M19.032 18.446a4 4 0 1 1 1.414-1.414l2.261 2.26-1.414 1.415-2.261-2.26zM11 19v2H4a3 3 0 0 1-3-3V6a3 3 0 0 1 3-3h12a3 3 0 0 1 3 3v2h-2V6a1 1 0 0 0-1-1H4a1 1 0 0 0-1 1v12a1 1 0 0 0 1 1h7zm6-2a2 2 0 1 0 0-4 2 2 0 0 0 0 4z" />
</svg>
